[api-updater (non-obsolete-error-filter)] 6/30/2021 2:10:26 PM : Starting C:/Program Files/Unity/Hub/Editor/2020.3.6f1/Editor/Data/Tools/ScriptUpdater/APIUpdater.NonObsoleteApiUpdaterDetector.exe
[api-updater (non-obsolete-error-filter)] 
----------------------------------
jit/startup time      : 1024.1858ms
moved types parse time: 78ms
candidates parse time : 1ms
C# parse time         : 426ms
candidates check time : 87ms
console write time    : 1ms

[api-updater (non-obsolete-error-filter)] 7/1/2021 4:04:17 PM : Starting C:/Program Files/Unity/Hub/Editor/2020.3.6f1/Editor/Data/Tools/ScriptUpdater/APIUpdater.NonObsoleteApiUpdaterDetector.exe
[api-updater (non-obsolete-error-filter)] 
----------------------------------
jit/startup time      : 1927.6232ms
moved types parse time: 106ms
candidates parse time : 2ms
C# parse time         : 438ms
candidates check time : 67ms
console write time    : 1ms

[api-updater (non-obsolete-error-filter)] 7/1/2021 4:04:24 PM : Starting C:/Program Files/Unity/Hub/Editor/2020.3.6f1/Editor/Data/Tools/ScriptUpdater/APIUpdater.NonObsoleteApiUpdaterDetector.exe
[api-updater (non-obsolete-error-filter)] 
----------------------------------
jit/startup time      : 120.7294ms
moved types parse time: 95ms
candidates parse time : 2ms
C# parse time         : 292ms
candidates check time : 51ms
console write time    : 0ms

